digraph {
  rankdir=RL;

  // Branches
  node [style="filled", shape="box"];
  node [fillcolor="black", fontcolor="green"];
  "master" [label="master"];
  "task1"  [label="task1"];
  "task2"  [label="task2"];
  "task3"  [label="task3"];

  // Commits
  node [fillcolor="white", fontcolor="black"];
  "master-c1" [label="Version la plus\nrécente"];
  "master-c2" [label="Ancien\ncommit"];
  "master-c3" [label="Commit plus\nancien"];
  "master-c4" [label="..."];
  "task1-c1" [label="Un commit"];
  "task2-c1" [label="Un 3e commit"];
  "task2-c2" [label="Un 2e commit"];
  "task2-c3" [label="Un commit"];
  "task3-c1" [label="Un 2e commit"];
  "task3-c2" [label="Un commit"];

  // Branch references
  "master" -> "master-c1";
  "task1" -> "task1-c1";
  "task2" -> "task2-c1";
  "task3" -> "task3-c1";

  // Relations between commits
  "master-c1" -> "master-c2" -> "master-c3" -> "master-c4";
  "task1-c1" -> "master-c1";
  "task2-c1" -> "task2-c2" -> "task2-c3" -> "master-c1";
  "task3-c1" -> "task3-c2";
  "task3-c2" -> "task2-c1";
}
